…
    ## Parsed with column specification:
    ## cols(
    ##   `Year of Birth` = col_double(),
    ##   Gender = col_character(),
    ##   Ethnicity = col_character(),
    ##   `Child's First Name` = col_character(),
    ##   Count = col_double(),
    ##   Rank = col_double()
    ## )

``` r
baby_names
```

    ## # A tibble: 12,181 x 6
    ##    year_of_birth gender ethnicity              childs_first_na… count  rank
    ##            <dbl> <chr>  <chr>                  <chr>            <dbl> <dbl>
    ##  1          2016 female asian and pacific isl… olivia             172     1
    ##  2          2016 female asian and pacific isl… chloe              112     2
    ##  3          2016 female asian and pacific isl… sophia             104     3
    ##  4          2016 female asian and pacific isl… emily               99     4
    ##  5          2016 female asian and pacific isl… emma                99     4
    ##  6          2016 female asian and pacific isl… mia                 79     5
    ##  7          2016 female asian and pacific isl… charlotte           59     6
    ##  8          2016 female asian and pacific isl… sarah               57     7
    ##  9          2016 female asian and pacific isl… isabella            56     8
    ## 10          2016 female asian and pacific isl… hannah              56     8
    ## # … with 12,171 more rows
…
